{
    "base":"CZK",
    "date":"2017-04-21",
    "rates":{
        "AUD":0.052794,
        "BGN":0.072617,
        "BRL":0.12506
        "CAD":0.053514,
        "CHF":0.039654,
        "CNY":0.27352,
        "DKK":0.27613,
        "GBP":0.031085,
        "HKD":0.30888,
        "HRK":0.27689,
        "HUF":11.665,
        "IDR":529.09,
        "ILS":0.14616,
        "INR":2.5663,
        "JPY":4.3337,
        "KRW":45.116,
        "MXN":0.748,
        "MYR":0.17473,
        "NOK":0.34336,
        "NZD":0.056722,
        "PHP":1.9792,
        "PLN":0.15864,
        "RON":0.1687,
        "RUB":2.2373,
        "SEK":0.35789,
        "SGD":0.055501,
        "THB":1.366,
        "TRY":0.14481,
        "USD":0.039721,
        "ZAR":0.522,
        "EUR":0.037129
    }
}
